{
	"credit": "Made with Blockbench",
	"textures": {
		"1": "Pokemon Cobbled:pc_screen_overlay",
		"3": "Pokemon Cobbled:pc_back",
		"6": "block/iron_block",
		"particle": "block/iron_block"
	},
	"elements": [
		{
			"name": "interface_block",
			"from": [1, 12.71613, 2.80239],
			"to": [15, 16.71613, 8.80239],
			"rotation": {"angle": -22.5, "axis": "x", "origin": [8, 15.21613, 5.80239]},
			"faces": {
				"north": {"uv": [1, 0, 15, 4], "texture": "#6"},
				"east": {"uv": [0, 0, 6, 4], "texture": "#6"},
				"west": {"uv": [10, 0, 16, 4], "texture": "#6"},
				"up": {"uv": [15, 16, 1, 10], "texture": "#6"}
			}
		},
		{
			"name": "interface",
			"from": [2, 16.75, 3.80239],
			"to": [14, 16.75, 7.80239],
			"rotation": {"angle": -22.5, "axis": "x", "origin": [8, 15.21613, 5.80239]},
			"faces": {
				"up": {"uv": [14, 15, 2, 11], "texture": "#1"}
			}
		},
		{
			"name": "front",
			"from": [0, 0, 4],
			"to": [16, 16, 8],
			"faces": {
				"north": {"uv": [0, 0, 16, 16], "texture": "#6"},
				"east": {"uv": [12, 0, 16, 16], "texture": "#6"},
				"west": {"uv": [0, 0, 4, 16], "texture": "#6"},
				"up": {"uv": [0, 0, 16, 4], "texture": "#6"},
				"down": {"uv": [0, 12, 16, 16], "texture": "#6"}
			}
		},
		{
			"name": "back",
			"from": [0, 0, 8],
			"to": [16, 15, 16],
			"faces": {
				"east": {"uv": [0, 1, 8, 16], "texture": "#6"},
				"south": {"uv": [0, 1, 16, 16], "texture": "#6"},
				"west": {"uv": [8, 1, 16, 16], "texture": "#6"},
				"down": {"uv": [0, 0, 16, 8], "texture": "#6"}
			}
		},
		{
			"name": "plug_e",
			"from": [9, 0, 16.05],
			"to": [14, 4, 16.05],
			"rotation": {"angle": 0, "axis": "y", "origin": [2, 0, 0]},
			"faces": {
				"south": {"uv": [12, 0, 16, 6], "rotation": 90, "texture": "#3"}
			}
		},
		{
			"name": "plug_w",
			"from": [2, 0, 16.05],
			"to": [7, 4, 16.05],
			"rotation": {"angle": 0, "axis": "y", "origin": [2, 0, 0]},
			"faces": {
				"south": {"uv": [12, 0, 16, 6], "rotation": 90, "texture": "#3"}
			}
		},
		{
			"name": "back",
			"from": [0, 17, 9],
			"to": [16, 32, 16],
			"faces": {
				"east": {"uv": [0, 0, 7, 15], "texture": "#6"},
				"south": {"uv": [0, 0, 16, 15], "texture": "#6"},
				"west": {"uv": [9, 0, 16, 15], "texture": "#6"},
				"up": {"uv": [0, 8, 16, 16], "texture": "#6"}
			}
		},
		{
			"name": "front",
			"from": [0, 17, 8],
			"to": [16, 32, 9],
			"faces": {
				"north": {"uv": [0, 0, 16, 15], "texture": "#6"},
				"east": {"uv": [15, 0, 16, 15], "texture": "#6"},
				"west": {"uv": [0, 0, 1, 15], "texture": "#6"},
				"up": {"uv": [0, 7, 16, 8], "texture": "#6"}
			}
		},
		{
			"name": "midback",
			"from": [0, 15, 9],
			"to": [16, 17, 16],
			"faces": {
				"east": {"uv": [0, 6, 7, 8], "texture": "#6"},
				"south": {"uv": [0, 6, 16, 8], "texture": "#6"},
				"west": {"uv": [9, 6, 16, 8], "texture": "#6"}
			}
		},
		{
			"name": "midfront",
			"from": [0, 15, 8],
			"to": [16, 17, 9],
			"faces": {
				"north": {"uv": [0, 15, 16, 16], "texture": "#6"},
				"east": {"uv": [15, 6, 16, 8], "texture": "#6"},
				"west": {"uv": [0, 6, 1, 8], "texture": "#6"}
			}
		},
		{
			"name": "screen",
			"from": [1, 19, 7.95],
			"to": [15, 29, 7.95],
			"rotation": {"angle": 0, "axis": "y", "origin": [1, 0, 0]},
			"faces": {
				"north": {"uv": [1, 0, 15, 10], "texture": "#1"}
			}
		},
		{
			"name": "divider",
			"from": [0, 20, 7],
			"to": [1, 31, 8],
			"faces": {
				"north": {"uv": [15.5, 1, 16, 12], "texture": "#6"},
				"east": {"uv": [15.5, 1, 16, 12], "texture": "#6"},
				"west": {"uv": [15.5, 1, 16, 12], "texture": "#6"},
				"down": {"uv": [15.5, 11.5, 16, 12], "texture": "#6"}
			}
		},
		{
			"name": "divider",
			"from": [0, 24, 6],
			"to": [1, 31, 7],
			"faces": {
				"north": {"uv": [15.5, 1, 16, 8], "texture": "#6"},
				"east": {"uv": [15.5, 1, 16, 8], "texture": "#6"},
				"west": {"uv": [15.5, 1, 16, 8], "texture": "#6"},
				"down": {"uv": [15.5, 7.5, 16, 8], "texture": "#6"}
			}
		},
		{
			"name": "divider",
			"from": [15, 24, 6],
			"to": [16, 31, 7],
			"rotation": {"angle": 0, "axis": "y", "origin": [16, 0, 0]},
			"faces": {
				"north": {"uv": [0, 1, 0.5, 8], "texture": "#6"},
				"east": {"uv": [0, 1, 0.5, 8], "texture": "#6"},
				"west": {"uv": [0, 1, 0.5, 8], "texture": "#6"},
				"down": {"uv": [0, 7.5, 0.5, 8], "texture": "#6"}
			}
		},
		{
			"name": "divider",
			"from": [15, 20, 7],
			"to": [16, 31, 8],
			"rotation": {"angle": 0, "axis": "y", "origin": [16, 0, 0]},
			"faces": {
				"north": {"uv": [0, 1, 0.5, 12], "texture": "#6"},
				"east": {"uv": [0, 1, 0.5, 12], "texture": "#6"},
				"west": {"uv": [0, 1, 0.5, 12], "texture": "#6"},
				"down": {"uv": [0, 11.5, 0.5, 12], "texture": "#6"}
			}
		},
		{
			"name": "divider",
			"from": [0, 31, 6],
			"to": [16, 32, 8],
			"faces": {
				"north": {"uv": [0, 0, 16, 0.5], "texture": "#6"},
				"east": {"uv": [8, 0, 10, 0.5], "texture": "#6"},
				"west": {"uv": [6, 0, 8, 0.5], "texture": "#6"},
				"up": {"uv": [0, 16, 16, 14], "texture": "#6"},
				"down": {"uv": [0, 14, 16, 16], "texture": "#6"}
			}
		},
		{
			"name": "sus",
			"from": [2, 13, 16.05],
			"to": [14, 21, 16.05],
			"rotation": {"angle": 0, "axis": "y", "origin": [2, 0, 0]},
			"faces": {
				"south": {"uv": [0, 0, 12, 8], "texture": "#3"}
			}
		}
	],
	"groups": [
		{
			"name": "pc_bottom",
			"origin": [8, 8, 8],
			"color": 0,
			"children": [0, 1, 2, 3, 4, 5]
		},
		{
			"name": "pc_top",
			"origin": [8, 8, 8],
			"color": 0,
			"children": [6, 7, 8, 9, 10, 11, 12, 13, 14, 15, 16]
		}
	]
}