{
	"format_version": "1.12.0",
	"minecraft:geometry": [
		{
			"description": {
				"identifier": "geometry.unknown",
				"texture_width": 64,
				"texture_height": 64,
				"visible_bounds_width": 3,
				"visible_bounds_height": 2.5,
				"visible_bounds_offset": [0, 0.75, 0]
			},
			"bones": [
				{
					"name": "maushold_four",
					"pivot": [0, 0, 0]
				},
				{
					"name": "left_maus",
					"parent": "maushold_four",
					"pivot": [8, 2, 0]
				},
				{
					"name": "body",
					"parent": "left_maus",
					"pivot": [8, 2, 0],
					"cubes": [
						{"origin": [6, 2, -1], "size": [4, 2, 2], "uv": [34, 0]}
					]
				},
				{
					"name": "right_leg",
					"parent": "body",
					"pivot": [7, 2, 0],
					"cubes": [
						{"origin": [6, 0, -1], "size": [2, 2, 2], "uv": [22, 38]}
					]
				},
				{
					"name": "right_arm",
					"parent": "body",
					"pivot": [6, 4, 0],
					"rotation": [0, 0, -20],
					"cubes": [
						{"origin": [4, 2, -1], "size": [2, 2, 2], "inflate": -0.001, "uv": [36, 30]}
					]
				},
				{
					"name": "left_arm",
					"parent": "body",
					"pivot": [10, 4, 0],
					"rotation": [0, 0, 20],
					"cubes": [
						{"origin": [10, 2, -1], "size": [2, 2, 2], "inflate": -0.001, "uv": [16, 36]}
					]
				},
				{
					"name": "left_leg",
					"parent": "body",
					"pivot": [9, 2, 0],
					"cubes": [
						{"origin": [8, 0, -1], "size": [2, 2, 2], "uv": [36, 36]}
					]
				},
				{
					"name": "head",
					"parent": "body",
					"pivot": [8, 4, 0],
					"cubes": [
						{"origin": [4, 4, -3], "size": [8, 6, 6], "uv": [22, 18]},
						{"origin": [7.5, 5.5, -3], "size": [1, 1, 0], "inflate": 0.001, "uv": [50, 27]},
						{"origin": [4, 4, -3], "size": [8, 6, 6], "inflate": -0.001, "uv": [0, 12]}
					]
				},
				{
					"name": "right_ear",
					"parent": "head",
					"pivot": [7.5, 7.5, 0],
					"rotation": [0, 0, -12.5],
					"cubes": [
						{"origin": [1.5, 7.5, 0], "size": [6, 6, 0], "uv": [12, 30]}
					]
				},
				{
					"name": "left_ear",
					"parent": "head",
					"pivot": [8.5, 7.5, 0],
					"rotation": [0, 0, 12.5],
					"cubes": [
						{"origin": [8.5, 7.5, 0], "size": [6, 6, 0], "uv": [0, 30]}
					]
				},
				{
					"name": "tail",
					"parent": "body",
					"pivot": [8, 1.5, 1],
					"rotation": [-30, 0, 0],
					"cubes": [
						{"origin": [8, 1.5, 0], "size": [0, 2, 3], "uv": [0, 9]}
					]
				},
				{
					"name": "right_maus",
					"parent": "maushold_four",
					"pivot": [-8, 2, 0]
				},
				{
					"name": "body2",
					"parent": "right_maus",
					"pivot": [-8, 2, 0],
					"cubes": [
						{"origin": [-10, 2, -1], "size": [4, 2, 2], "uv": [24, 30]}
					]
				},
				{
					"name": "right_leg2",
					"parent": "body2",
					"pivot": [-9, 2, 0],
					"cubes": [
						{"origin": [-10, 0, -1], "size": [2, 2, 2], "uv": [8, 36]}
					]
				},
				{
					"name": "right_arm2",
					"parent": "body2",
					"pivot": [-10, 4, 0],
					"rotation": [0, 0, -20],
					"cubes": [
						{"origin": [-12, 2, -1], "size": [2, 2, 2], "inflate": -0.001, "uv": [0, 36]}
					]
				},
				{
					"name": "left_arm2",
					"parent": "body2",
					"pivot": [-6, 4, 0],
					"rotation": [0, 0, 20],
					"cubes": [
						{"origin": [-6, 2, -1], "size": [2, 2, 2], "inflate": -0.001, "uv": [30, 34]}
					]
				},
				{
					"name": "left_leg2",
					"parent": "body2",
					"pivot": [-7, 2, 0],
					"cubes": [
						{"origin": [-8, 0, -1], "size": [2, 2, 2], "uv": [22, 34]}
					]
				},
				{
					"name": "head2",
					"parent": "body2",
					"pivot": [-8, 4, 0],
					"cubes": [
						{"origin": [-12, 4, -3], "size": [8, 6, 6], "uv": [22, 6]},
						{"origin": [-12, 4, -3], "size": [8, 6, 6], "inflate": -0.001, "uv": [0, 0]},
						{"origin": [-8.5, 5.5, -3], "size": [1, 1, 0], "inflate": 0.001, "uv": [50, 15]}
					]
				},
				{
					"name": "right_ear2",
					"parent": "head2",
					"pivot": [-8.5, 7.5, 0],
					"rotation": [0, 0, -12.5],
					"cubes": [
						{"origin": [-14.5, 7.5, 0], "size": [6, 6, 0], "uv": [0, 24]}
					]
				},
				{
					"name": "left_ear2",
					"parent": "head2",
					"pivot": [-7.5, 7.5, 0],
					"rotation": [0, 0, 12.5],
					"cubes": [
						{"origin": [-7.5, 7.5, 0], "size": [6, 6, 0], "uv": [22, 0]}
					]
				},
				{
					"name": "tail2",
					"parent": "body2",
					"pivot": [-8, 1.5, 1],
					"rotation": [-30, 0, 0],
					"cubes": [
						{"origin": [-8, 1.5, 0], "size": [0, 2, 3], "uv": [0, 0]}
					]
				},
				{
					"name": "baby_maus",
					"parent": "maushold_four",
					"pivot": [0, 1, -3.5]
				},
				{
					"name": "body4",
					"parent": "baby_maus",
					"pivot": [0, 1, -3.5],
					"cubes": [
						{"origin": [-1, 1, -4], "size": [2, 1, 1], "uv": [6, 52]}
					]
				},
				{
					"name": "right_leg4",
					"parent": "body4",
					"pivot": [-0.5, 1, -3.5],
					"cubes": [
						{"origin": [-1, 0, -4], "size": [1, 1, 1], "uv": [5, 54]}
					]
				},
				{
					"name": "left_leg4",
					"parent": "body4",
					"pivot": [0.5, 1, -3.5],
					"cubes": [
						{"origin": [0, 0, -4], "size": [1, 1, 1], "uv": [9, 54]}
					]
				},
				{
					"name": "left_arm4",
					"parent": "body4",
					"pivot": [1, 2, -3.5],
					"rotation": [0, 0, 15],
					"cubes": [
						{"origin": [1, 1, -4], "size": [1, 1, 1], "inflate": -0.001, "uv": [15, 50]}
					]
				},
				{
					"name": "right_arm4",
					"parent": "body4",
					"pivot": [-1, 2, -3.5],
					"rotation": [0, 0, -15],
					"cubes": [
						{"origin": [-2, 1, -4], "size": [1, 1, 1], "inflate": -0.001, "uv": [1, 50]}
					]
				},
				{
					"name": "head4",
					"parent": "body4",
					"pivot": [0, 2, -3.5],
					"cubes": [
						{"origin": [-1.5, 2, -4.5], "size": [3, 2, 2], "uv": [5, 48]},
						{"origin": [0.5, 2.5, -4.5], "size": [0.5, 0.5, 0], "inflate": 0.001, "uv": [14, 49]},
						{"origin": [-1, 2.5, -4.5], "size": [0.5, 0.5, 0], "inflate": 0.001, "uv": [6, 49]}
					]
				},
				{
					"name": "right_ear4",
					"parent": "body4",
					"pivot": [-0.5, 4, -3.5],
					"rotation": [0, 0, -5],
					"cubes": [
						{"origin": [-2.5, 3, -3.5], "size": [2, 2, 0], "uv": [5, 46]}
					]
				},
				{
					"name": "left_ear4",
					"parent": "body4",
					"pivot": [0.5, 4, -3.5],
					"rotation": [0, 0, 5],
					"cubes": [
						{"origin": [0.5, 3, -3.5], "size": [2, 2, 0], "uv": [11, 46]}
					]
				}
			]
		}
	]
}