{
	"format_version": "1.8.0",
	"animations": {
		"animation.garchomp.cry": {
			"animation_length": 1.5,
			"bones": {
				"neck": {
					"rotation": {
						"0.0": [0, 0, 0],
						"0.25": [10, 0, 0],
						"1.25": [10, 0, 0],
						"1.5": [0, 0, 0]
					}
				},
				"head": {
					"rotation": {
						"0.0": [0, 0, 0],
						"0.25": [-15, 0, 0],
						"1.25": [-15, 0, 0],
						"1.5": [0, 0, 0]
					}
				},
				"jaw": {
					"rotation": {
						"0.0": [0, 0, 0],
						"0.25": [25, 0, 0],
						"1.25": [25, 0, 0],
						"1.5": [0, 0, 0]
					}
				}
			}
		},
		"animation.garchomp.blink": {
			"animation_length": 0.1667,
			"bones": {
				"eyelid_left": {
					"position": {
						"0.0": [0, 0, -0.1],
						"0.125": [0, 0, -0.1],
						"0.1667": [0, 0, 0]
					}
				},
				"eyelid_right": {
					"position": {
						"0.0": [0, 0, -0.1],
						"0.125": [0, 0, -0.1],
						"0.1667": [0, 0, 0]
					}
				}
			}
		},
		"animation.garchomp.ground_idle": {
			"loop": true,
			"bones": {
				"torso": {
					"rotation": [20, 0, 0]
				},
				"chest": {
					"rotation": [5, 0, 0]
				},
				"neck2": {
					"rotation": [-7.5, 0, 0]
				},
				"head": {
					"rotation": [-7.5, 0, 0]
				},
				"arm_left": {
					"rotation": [0, 0, 40]
				},
				"arm_left2": {
					"rotation": [0, 17.5, 0]
				},
				"arm_left3": {
					"rotation": [0, 27.5, -52.5]
				},
				"arm_right": {
					"rotation": [0, 0, -40]
				},
				"arm_right2": {
					"rotation": [0, -17.5, 0]
				},
				"arm_right3": {
					"rotation": [0, -27.5, 52.5]
				},
				"tail2": {
					"rotation": [25, 0, 0]
				},
				"tail3": {
					"rotation": [30, 0, 0]
				},
				"tail4": {
					"rotation": [20, 0, 0]
				}
			}
		},
		"animation.garchomp.flying_idle": {
			"loop": true,
			"bones": {
				"body": {
					"rotation": [92.5, 0, 0],
					"position": [0, -20, 0]
				},
				"chest": {
					"rotation": [-5, 0, 0]
				},
				"neck2": {
					"rotation": [-17.5, 0, 0]
				},
				"head": {
					"rotation": [-57.5, 0, 0]
				},
				"jaw": {
					"rotation": [5, 0, 0]
				},
				"arm_left": {
					"rotation": [0, 12.5, -20]
				},
				"arm_left3": {
					"rotation": [-22.5, 0, -52.5]
				},
				"hand_left": {
					"rotation": [-52.5, 0, 0]
				},
				"arm_right": {
					"rotation": [0, -12.5, 20]
				},
				"arm_right3": {
					"rotation": [-22.5, 0, 52.5]
				},
				"hand_right": {
					"rotation": [-52.5, 0, 0]
				},
				"tail": {
					"rotation": [-25, 0, 0]
				},
				"leg_left": {
					"rotation": [0, 10, 0]
				},
				"foot_left": {
					"rotation": [10, 0, 0]
				},
				"foot_left2": {
					"rotation": [10, 0, 0]
				},
				"leg_right": {
					"rotation": [0, -10, 0]
				},
				"foot_right": {
					"rotation": [10, 0, 0]
				},
				"foot_right2": {
					"rotation": [10, 0, 0]
				}
			}
		}
	}
}