{
	"format_version": "1.8.0",
	"animations": {
		"animation.piplup.ground_idle": {
			"loop": true,
			"bones": {
				"wing_right": {
					"rotation": [5, 0, -60]
				},
				"wing_left": {
					"rotation": [5, 0, 60]
				}
			}
		},
		"animation.piplup.water_idle": {
			"loop": true,
			"bones": {
				"wing_right": {
					"rotation": [5, 0, -45]
				},
				"wing_left": {
					"rotation": [5, 0, 45]
				},
				"body": {
					"rotation": [30, 0, 0]
				},
				"head": {
					"rotation": [-30, 0, 0]
				},
				"leg_right": {
					"rotation": [15, 5, 0]
				},
				"foot_right1": {
					"rotation": [15, 0, 0]
				},
				"leg_left": {
					"rotation": [15, -5, 0]
				},
				"foot_left1": {
					"rotation": [15, 0, 0]
				}
			}
		},
		"animation.piplup.water_swim": {
			"loop": true,
			"bones": {
				"wing_right": {
					"rotation": [5, 0, -75]
				},
				"wing_left": {
					"rotation": [5, 0, 75]
				},
				"body": {
					"rotation": [60, 0, 0]
				},
				"head": {
					"rotation": [-45, 0, 0]
				},
				"leg_right": {
					"rotation": [30, 5, 0]
				},
				"foot_right1": {
					"rotation": [15, 0, 0]
				},
				"leg_left": {
					"rotation": [30, -5, 0]
				},
				"foot_left1": {
					"rotation": [15, 0, 0]
				}
			}
		},
		"animation.piplup.blink": {
			"animation_length": 0.1667,
			"bones": {
				"eyelid_left": {
					"position": {
						"0.0": [0.1, 0, -0.1],
						"0.125": [0.1, 0, -0.1],
						"0.1667": [0, 0, 0]
					}
				},
				"eyelid_right": {
					"position": {
						"0.0": [-0.1, 0, -0.1],
						"0.125": [-0.1, 0, -0.1],
						"0.1667": [0, 0, 0]
					}
				}
			}
		}
	}
}